<?xml version="1.0" encoding="UTF-8" standalone="no"?>
<svg
   xmlns:dc="http://purl.org/dc/elements/1.1/"
   xmlns:cc="http://creativecommons.org/ns#"
   xmlns:rdf="http://www.w3.org/1999/02/22-rdf-syntax-ns#"
   xmlns:svg="http://www.w3.org/2000/svg"
   xmlns="http://www.w3.org/2000/svg"
   id="svg428"
   viewBox="0 0 15374.367 8287.3666"
   height="21.049911mm"
   width="39.050892mm"
   version="1.1">
  <metadata
     id="metadata434">
    <rdf:RDF>
      <cc:Work
         rdf:about="">
        <dc:format>image/svg+xml</dc:format>
        <dc:type
           rdf:resource="http://purl.org/dc/dcmitype/StillImage" />
        <dc:title>SVG Picture created as v1_teensy-brd.svg date 2020/05/13 17:59:13 </dc:title>
      </cc:Work>
    </rdf:RDF>
  </metadata>
  <defs
     id="defs432" />
  <title
     id="title2">SVG Picture created as v1_teensy-brd.svg date 2020/05/13 17:59:13 </title>
  <desc
     id="desc4">Picture generated by PCBNEW </desc>
  <g
     transform="translate(207.68348,-780.31652)"
     id="g6"
     style="fill:#000000;fill-opacity:1;stroke:#000000;stroke-linecap:round;stroke-linejoin:round;stroke-opacity:1" />
  <g
     transform="translate(207.68348,-780.31652)"
     id="g318"
     style="fill:#ffffff;fill-opacity:1;stroke:#ffffff;stroke-width:177.16499329;stroke-linecap:round;stroke-linejoin:round;stroke-opacity:1" />
  <g
     transform="translate(207.68348,-780.31652)"
     id="g324"
     style="fill:#ffffff;fill-opacity:1;stroke:#ffffff;stroke-width:39.37009811;stroke-linecap:round;stroke-linejoin:round;stroke-opacity:1" />
  <g
     transform="translate(207.68348,-780.31652)"
     id="g330"
     style="fill:#ffffff;fill-opacity:1;stroke:#ffffff;stroke-width:39.37009811;stroke-linecap:round;stroke-linejoin:round;stroke-opacity:1" />
  <g
     transform="translate(207.68348,-780.31652)"
     id="g336"
     style="fill:#ffffff;fill-opacity:1;stroke:#ffffff;stroke-width:39.37009811;stroke-linecap:round;stroke-linejoin:round;stroke-opacity:1" />
  <g
     transform="translate(207.68348,-780.31652)"
     id="g342"
     style="fill:#ffffff;fill-opacity:1;stroke:#ffffff;stroke-width:39.37009811;stroke-linecap:round;stroke-linejoin:round;stroke-opacity:1" />
  <g
     transform="translate(207.68348,-780.31652)"
     id="g348"
     style="fill:#ffffff;fill-opacity:1;stroke:#ffffff;stroke-width:39.37009811;stroke-linecap:round;stroke-linejoin:round;stroke-opacity:1" />
  <g
     transform="translate(207.68348,-780.31652)"
     id="g354"
     style="fill:#ffffff;fill-opacity:1;stroke:#ffffff;stroke-width:39.37009811;stroke-linecap:round;stroke-linejoin:round;stroke-opacity:1" />
  <g
     transform="translate(207.68348,-780.31652)"
     id="g360"
     style="fill:#ffffff;fill-opacity:1;stroke:#ffffff;stroke-width:39.37009811;stroke-linecap:round;stroke-linejoin:round;stroke-opacity:1" />
  <g
     transform="translate(207.68348,-780.31652)"
     id="g366"
     style="fill:#ffffff;fill-opacity:1;stroke:#ffffff;stroke-width:39.37009811;stroke-linecap:round;stroke-linejoin:round;stroke-opacity:1" />
  <g
     transform="translate(207.68348,-780.31652)"
     id="g372"
     style="fill:#ffffff;fill-opacity:1;stroke:#ffffff;stroke-width:39.37009811;stroke-linecap:round;stroke-linejoin:round;stroke-opacity:1" />
  <g
     transform="translate(207.68348,-780.31652)"
     id="g378"
     style="fill:#ffffff;fill-opacity:1;stroke:#ffffff;stroke-width:39.37009811;stroke-linecap:round;stroke-linejoin:round;stroke-opacity:1" />
  <g
     transform="translate(207.68348,-780.31652)"
     id="g380"
     style="fill:#000000;fill-opacity:1;stroke:#000000;stroke-width:39.37009811;stroke-linecap:round;stroke-linejoin:round;stroke-opacity:1" />
  <g
     transform="translate(207.68348,-780.31652)"
     id="g382"
     style="fill:#000000;fill-opacity:1;stroke:#000000;stroke-width:19.68499947;stroke-linecap:round;stroke-linejoin:round;stroke-opacity:1" />
  <g
     style="display:inline"
     transform="translate(207.68348,-780.31652)"
     id="layer1">
    <g
       transform="translate(-2.404904e-6,5.0714334e-6)"
       id="g316"
       style="fill:#000000;fill-opacity:0;stroke:#000000;stroke-width:-0.0003937;stroke-linecap:round;stroke-linejoin:round;stroke-opacity:1">
      <g
         id="g8" />
      <g
         id="g10"
         style="fill:#000000;fill-opacity:0;stroke:#000000;stroke-width:0;stroke-linecap:round;stroke-linejoin:round;stroke-opacity:1" />
      <g
         id="g16"
         style="fill:#000000;fill-opacity:1;stroke:#000000;stroke-width:0;stroke-linecap:round;stroke-linejoin:round;stroke-opacity:1">
        <path
           id="path12"
           d="m 12186,5036.81 h -750 v -500 h 750 z"
           style="fill:#000000;fill-opacity:1;fill-rule:evenodd;stroke:#000000;stroke-width:0;stroke-linecap:round;stroke-linejoin:round;stroke-opacity:1" />
        <path
           id="path14"
           d="m 12186,3736.81 h -750 v -500 h 750 z"
           style="fill:#000000;fill-opacity:1;fill-rule:evenodd;stroke:#000000;stroke-width:0;stroke-linecap:round;stroke-linejoin:round;stroke-opacity:1" />
      </g>
      <g
         id="g18" />
      <g
         id="g24"
         style="fill:#000000;fill-opacity:1;stroke:#000000;stroke-width:0;stroke-linecap:round;stroke-linejoin:round;stroke-opacity:1">
        <path
           id="path20"
           d="m 4140.16,3232.28 v -750 h 500 v 750 z"
           style="fill:#000000;fill-opacity:1;fill-rule:evenodd;stroke:#000000;stroke-width:0;stroke-linecap:round;stroke-linejoin:round;stroke-opacity:1" />
        <path
           id="path22"
           d="m 2840.16,3232.28 v -750 h 500 v 750 z"
           style="fill:#000000;fill-opacity:1;fill-rule:evenodd;stroke:#000000;stroke-width:0;stroke-linecap:round;stroke-linejoin:round;stroke-opacity:1" />
      </g>
      <g
         id="g26" />
      <g
         id="g32"
         style="fill:#000000;fill-opacity:1;stroke:#000000;stroke-width:0;stroke-linecap:round;stroke-linejoin:round;stroke-opacity:1">
        <path
           id="path28"
           d="m 10826.6,1830.2 9.5,1.42 9.4,2.34 9.1,3.26 8.7,4.13 8.3,4.96 7.8,5.76 7.1,6.48 6.5,7.16 5.8,7.76 4.9,8.28 4.2,8.73 3.2,9.1 2.4,9.37 1.4,9.55 0.5,9.65 v 846.46 l -0.5,9.64 -1.4,9.56 -2.4,9.37 -3.2,9.09 -4.2,8.73 -4.9,8.29 -5.8,7.76 -6.5,7.15 -7.1,6.49 -7.8,5.75 -8.3,4.97 -8.7,4.13 -9.1,3.25 -9.4,2.35 -9.5,1.42 -9.7,0.47 h -364.1 l -9.7,-0.47 -9.5,-1.42 -9.4,-2.35 -9.1,-3.25 -8.7,-4.13 -8.3,-4.97 -7.8,-5.75 -7.1,-6.49 -6.5,-7.15 -5.8,-7.76 -4.9,-8.29 -4.2,-8.73 -3.2,-9.09 -2.4,-9.37 -1.4,-9.56 -0.5,-9.64 v -846.46 l 0.5,-9.65 1.4,-9.55 2.4,-9.37 3.2,-9.1 4.2,-8.73 4.9,-8.28 5.8,-7.76 6.5,-7.16 7.1,-6.48 7.8,-5.76 8.3,-4.96 8.7,-4.13 9.1,-3.26 9.4,-2.34 9.5,-1.42 9.7,-0.48 h 364.1 z"
           style="fill:#000000;fill-opacity:1;fill-rule:evenodd;stroke:#000000;stroke-width:0;stroke-linecap:round;stroke-linejoin:round;stroke-opacity:1" />
        <path
           id="path30"
           d="m 11997.8,1830.2 9.6,1.42 9.4,2.34 9.1,3.26 8.7,4.13 8.3,4.96 7.7,5.76 7.2,6.48 6.5,7.16 5.7,7.76 5,8.28 4.1,8.73 3.3,9.1 2.3,9.37 1.4,9.55 0.5,9.65 v 846.46 l -0.5,9.64 -1.4,9.56 -2.3,9.37 -3.3,9.09 -4.1,8.73 -5,8.29 -5.7,7.76 -6.5,7.15 -7.2,6.49 -7.7,5.75 -8.3,4.97 -8.7,4.13 -9.1,3.25 -9.4,2.35 -9.6,1.42 -9.6,0.47 H 11624 l -9.6,-0.47 -9.6,-1.42 -9.4,-2.35 -9,-3.25 -8.8,-4.13 -8.3,-4.97 -7.7,-5.75 -7.2,-6.49 -6.5,-7.15 -5.7,-7.76 -5,-8.29 -4.1,-8.73 -3.3,-9.09 -2.3,-9.37 -1.4,-9.56 -0.5,-9.64 v -846.46 l 0.5,-9.65 1.4,-9.55 2.3,-9.37 3.3,-9.1 4.1,-8.73 5,-8.28 5.7,-7.76 6.5,-7.16 7.2,-6.48 7.7,-5.76 8.3,-4.96 8.8,-4.13 9,-3.26 9.4,-2.34 9.6,-1.42 9.6,-0.48 h 364.2 z"
           style="fill:#000000;fill-opacity:1;fill-rule:evenodd;stroke:#000000;stroke-width:0;stroke-linecap:round;stroke-linejoin:round;stroke-opacity:1" />
      </g>
      <g
         id="g34" />
      <g
         id="g40"
         style="fill:#000000;fill-opacity:1;stroke:#000000;stroke-width:0;stroke-linecap:round;stroke-linejoin:round;stroke-opacity:1">
        <path
           id="path36"
           d="m 2840.16,2248.03 v -750 h 500 v 750 z"
           style="fill:#000000;fill-opacity:1;fill-rule:evenodd;stroke:#000000;stroke-width:0;stroke-linecap:round;stroke-linejoin:round;stroke-opacity:1" />
        <path
           id="path38"
           d="m 4140.16,2248.03 v -750 h 500 v 750 z"
           style="fill:#000000;fill-opacity:1;fill-rule:evenodd;stroke:#000000;stroke-width:0;stroke-linecap:round;stroke-linejoin:round;stroke-opacity:1" />
      </g>
      <g
         id="g42" />
      <g
         id="g60"
         style="fill:#000000;fill-opacity:1;stroke:#000000;stroke-width:0;stroke-linecap:round;stroke-linejoin:round;stroke-opacity:1">
        <path
           id="path44"
           d="m 12303.1,6302.17 v 787.4 h -196.8 v -787.4 z"
           style="fill:#000000;fill-opacity:1;fill-rule:evenodd;stroke:#000000;stroke-width:0;stroke-linecap:round;stroke-linejoin:round;stroke-opacity:1" />
        <path
           id="path46"
           d="m 11909.4,6302.17 v 787.4 h -196.8 v -787.4 z"
           style="fill:#000000;fill-opacity:1;fill-rule:evenodd;stroke:#000000;stroke-width:0;stroke-linecap:round;stroke-linejoin:round;stroke-opacity:1" />
        <path
           id="path48"
           d="m 11515.7,6302.17 v 787.4 h -196.8 v -787.4 z"
           style="fill:#000000;fill-opacity:1;fill-rule:evenodd;stroke:#000000;stroke-width:0;stroke-linecap:round;stroke-linejoin:round;stroke-opacity:1" />
        <path
           id="path50"
           d="m 11122,6302.17 v 787.4 h -196.8 v -787.4 z"
           style="fill:#000000;fill-opacity:1;fill-rule:evenodd;stroke:#000000;stroke-width:0;stroke-linecap:round;stroke-linejoin:round;stroke-opacity:1" />
        <path
           id="path52"
           d="m 10728.3,6302.17 v 787.4 h -196.8 v -787.4 z"
           style="fill:#000000;fill-opacity:1;fill-rule:evenodd;stroke:#000000;stroke-width:0;stroke-linecap:round;stroke-linejoin:round;stroke-opacity:1" />
        <path
           id="path54"
           d="m 10334.6,6302.17 v 787.4 h -196.8 v -787.4 z"
           style="fill:#000000;fill-opacity:1;fill-rule:evenodd;stroke:#000000;stroke-width:0;stroke-linecap:round;stroke-linejoin:round;stroke-opacity:1" />
        <path
           id="path56"
           d="m 12992.1,7876.97 v 787.4 h -393.7 v -787.4 z"
           style="fill:#000000;fill-opacity:1;fill-rule:evenodd;stroke:#000000;stroke-width:0;stroke-linecap:round;stroke-linejoin:round;stroke-opacity:1" />
        <path
           id="path58"
           d="m 9842.52,7876.97 v 787.4 h -393.7 v -787.4 z"
           style="fill:#000000;fill-opacity:1;fill-rule:evenodd;stroke:#000000;stroke-width:0;stroke-linecap:round;stroke-linejoin:round;stroke-opacity:1" />
      </g>
      <g
         id="g62" />
      <g
         id="g80"
         style="fill:#000000;fill-opacity:1;stroke:#000000;stroke-width:0;stroke-linecap:round;stroke-linejoin:round;stroke-opacity:1">
        <path
           id="path64"
           d="m 2362.2,7876.97 v 787.4 h -393.7 v -787.4 z"
           style="fill:#000000;fill-opacity:1;fill-rule:evenodd;stroke:#000000;stroke-width:0;stroke-linecap:round;stroke-linejoin:round;stroke-opacity:1" />
        <path
           id="path66"
           d="m 5511.81,7876.97 v 787.4 h -393.7 v -787.4 z"
           style="fill:#000000;fill-opacity:1;fill-rule:evenodd;stroke:#000000;stroke-width:0;stroke-linecap:round;stroke-linejoin:round;stroke-opacity:1" />
        <path
           id="path68"
           d="m 2854.33,6302.17 v 787.4 h -196.85 v -787.4 z"
           style="fill:#000000;fill-opacity:1;fill-rule:evenodd;stroke:#000000;stroke-width:0;stroke-linecap:round;stroke-linejoin:round;stroke-opacity:1" />
        <path
           id="path70"
           d="m 3248.03,6302.17 v 787.4 h -196.85 v -787.4 z"
           style="fill:#000000;fill-opacity:1;fill-rule:evenodd;stroke:#000000;stroke-width:0;stroke-linecap:round;stroke-linejoin:round;stroke-opacity:1" />
        <path
           id="path72"
           d="m 3641.73,6302.17 v 787.4 h -196.85 v -787.4 z"
           style="fill:#000000;fill-opacity:1;fill-rule:evenodd;stroke:#000000;stroke-width:0;stroke-linecap:round;stroke-linejoin:round;stroke-opacity:1" />
        <path
           id="path74"
           d="m 4035.43,6302.17 v 787.4 h -196.85 v -787.4 z"
           style="fill:#000000;fill-opacity:1;fill-rule:evenodd;stroke:#000000;stroke-width:0;stroke-linecap:round;stroke-linejoin:round;stroke-opacity:1" />
        <path
           id="path76"
           d="m 4429.13,6302.17 v 787.4 h -196.85 v -787.4 z"
           style="fill:#000000;fill-opacity:1;fill-rule:evenodd;stroke:#000000;stroke-width:0;stroke-linecap:round;stroke-linejoin:round;stroke-opacity:1" />
        <path
           id="path78"
           d="m 4822.83,6302.17 v 787.4 h -196.85 v -787.4 z"
           style="fill:#000000;fill-opacity:1;fill-rule:evenodd;stroke:#000000;stroke-width:0;stroke-linecap:round;stroke-linejoin:round;stroke-opacity:1" />
      </g>
      <g
         id="g82" />
      <g
         id="g88"
         style="fill:#000000;fill-opacity:1;stroke:#000000;stroke-width:0;stroke-linecap:round;stroke-linejoin:round;stroke-opacity:1">
        <path
           id="path84"
           d="m 11201.8,5036.81 h -750 v -500 h 750 z"
           style="fill:#000000;fill-opacity:1;fill-rule:evenodd;stroke:#000000;stroke-width:0;stroke-linecap:round;stroke-linejoin:round;stroke-opacity:1" />
        <path
           id="path86"
           d="m 11201.8,3736.81 h -750 v -500 h 750 z"
           style="fill:#000000;fill-opacity:1;fill-rule:evenodd;stroke:#000000;stroke-width:0;stroke-linecap:round;stroke-linejoin:round;stroke-opacity:1" />
      </g>
      <g
         id="g90" />
      <g
         id="g96"
         style="fill:#000000;fill-opacity:1;stroke:#000000;stroke-width:0;stroke-linecap:round;stroke-linejoin:round;stroke-opacity:1">
        <path
           id="path92"
           d="m 4640.16,4549.21 v 750 h -500 v -750 z"
           style="fill:#000000;fill-opacity:1;fill-rule:evenodd;stroke:#000000;stroke-width:0;stroke-linecap:round;stroke-linejoin:round;stroke-opacity:1" />
        <path
           id="path94"
           d="m 3340.16,4549.21 v 750 h -500 v -750 z"
           style="fill:#000000;fill-opacity:1;fill-rule:evenodd;stroke:#000000;stroke-width:0;stroke-linecap:round;stroke-linejoin:round;stroke-opacity:1" />
      </g>
      <g
         id="g98" />
      <g
         id="g104"
         style="fill:#000000;fill-opacity:1;stroke:#000000;stroke-width:0;stroke-linecap:round;stroke-linejoin:round;stroke-opacity:1">
        <path
           id="path100"
           d="m 5333.66,3749.41 h 750 v 500 h -750 z"
           style="fill:#000000;fill-opacity:1;fill-rule:evenodd;stroke:#000000;stroke-width:0;stroke-linecap:round;stroke-linejoin:round;stroke-opacity:1" />
        <path
           id="path102"
           d="m 5333.66,2449.41 h 750 v 500 h -750 z"
           style="fill:#000000;fill-opacity:1;fill-rule:evenodd;stroke:#000000;stroke-width:0;stroke-linecap:round;stroke-linejoin:round;stroke-opacity:1" />
      </g>
      <g
         id="g106" />
      <g
         id="g110"
         style="fill:#000000;fill-opacity:1;stroke:#000000;stroke-width:0;stroke-linecap:round;stroke-linejoin:round;stroke-opacity:1">
        <circle
           id="circle108"
           r="393.70099"
           cy="1743.11"
           cx="14220.5" />
      </g>
      <g
         id="g112"
         style="fill:#000000;fill-opacity:1;stroke:#000000;stroke-width:39.37009811;stroke-linecap:round;stroke-linejoin:round;stroke-opacity:1" />
      <g
         id="g116"
         style="fill:#000000;fill-opacity:1;stroke:#000000;stroke-width:0;stroke-linecap:round;stroke-linejoin:round;stroke-opacity:1">
        <circle
           id="circle114"
           r="393.70099"
           cy="2743.1101"
           cx="14220.5" />
      </g>
      <g
         id="g118"
         style="fill:#000000;fill-opacity:1;stroke:#000000;stroke-width:39.37009811;stroke-linecap:round;stroke-linejoin:round;stroke-opacity:1" />
      <g
         id="g122"
         style="fill:#000000;fill-opacity:1;stroke:#000000;stroke-width:0;stroke-linecap:round;stroke-linejoin:round;stroke-opacity:1">
        <circle
           id="circle120"
           r="393.70099"
           cy="3743.1101"
           cx="14220.5" />
      </g>
      <g
         id="g124"
         style="fill:#000000;fill-opacity:1;stroke:#000000;stroke-width:39.37009811;stroke-linecap:round;stroke-linejoin:round;stroke-opacity:1" />
      <g
         id="g128"
         style="fill:#000000;fill-opacity:1;stroke:#000000;stroke-width:0;stroke-linecap:round;stroke-linejoin:round;stroke-opacity:1">
        <circle
           id="circle126"
           r="393.70099"
           cy="4743.1099"
           cx="14220.5" />
      </g>
      <g
         id="g130"
         style="fill:#000000;fill-opacity:1;stroke:#000000;stroke-width:39.37009811;stroke-linecap:round;stroke-linejoin:round;stroke-opacity:1" />
      <g
         id="g134"
         style="fill:#000000;fill-opacity:1;stroke:#000000;stroke-width:0;stroke-linecap:round;stroke-linejoin:round;stroke-opacity:1">
        <circle
           id="circle132"
           r="393.70099"
           cy="5743.1099"
           cx="14220.5" />
      </g>
      <g
         id="g136"
         style="fill:#000000;fill-opacity:1;stroke:#000000;stroke-width:39.37009811;stroke-linecap:round;stroke-linejoin:round;stroke-opacity:1" />
      <g
         id="g140"
         style="fill:#000000;fill-opacity:1;stroke:#000000;stroke-width:0;stroke-linecap:round;stroke-linejoin:round;stroke-opacity:1">
        <circle
           id="circle138"
           r="393.70099"
           cy="5743.1099"
           cx="8220.4697" />
      </g>
      <g
         id="g142"
         style="fill:#000000;fill-opacity:1;stroke:#000000;stroke-width:39.37009811;stroke-linecap:round;stroke-linejoin:round;stroke-opacity:1" />
      <g
         id="g146"
         style="fill:#000000;fill-opacity:1;stroke:#000000;stroke-width:0;stroke-linecap:round;stroke-linejoin:round;stroke-opacity:1">
        <circle
           id="circle144"
           r="393.70099"
           cy="4743.1099"
           cx="8220.4697" />
      </g>
      <g
         id="g148"
         style="fill:#000000;fill-opacity:1;stroke:#000000;stroke-width:39.37009811;stroke-linecap:round;stroke-linejoin:round;stroke-opacity:1" />
      <g
         id="g152"
         style="fill:#000000;fill-opacity:1;stroke:#000000;stroke-width:0;stroke-linecap:round;stroke-linejoin:round;stroke-opacity:1">
        <circle
           id="circle150"
           r="393.70099"
           cy="3743.1101"
           cx="8220.4697" />
      </g>
      <g
         id="g154"
         style="fill:#000000;fill-opacity:1;stroke:#000000;stroke-width:39.37009811;stroke-linecap:round;stroke-linejoin:round;stroke-opacity:1" />
      <g
         id="g158"
         style="fill:#000000;fill-opacity:1;stroke:#000000;stroke-width:0;stroke-linecap:round;stroke-linejoin:round;stroke-opacity:1">
        <circle
           id="circle156"
           r="393.70099"
           cy="2743.1101"
           cx="8220.4697" />
      </g>
      <g
         id="g160"
         style="fill:#000000;fill-opacity:1;stroke:#000000;stroke-width:39.37009811;stroke-linecap:round;stroke-linejoin:round;stroke-opacity:1" />
      <g
         id="g164"
         style="fill:#000000;fill-opacity:1;stroke:#000000;stroke-width:0;stroke-linecap:round;stroke-linejoin:round;stroke-opacity:1">
        <circle
           id="circle162"
           r="393.70099"
           cy="1743.11"
           cx="8220.4697" />
      </g>
      <g
         id="g166"
         style="fill:#000000;fill-opacity:1;stroke:#000000;stroke-width:39.37009811;stroke-linecap:round;stroke-linejoin:round;stroke-opacity:1" />
      <g
         id="g168" />
      <g
         id="g170"
         style="fill:#000000;fill-opacity:1;stroke:#000000;stroke-width:39.37009811;stroke-linecap:round;stroke-linejoin:round;stroke-opacity:1" />
      <g
         id="g182"
         style="fill:#000000;fill-opacity:1;stroke:#000000;stroke-width:0;stroke-linecap:round;stroke-linejoin:round;stroke-opacity:1">
        <path
           id="path172"
           d="m 9166.67,4885.81 v -470 h 210 v 470 z"
           style="fill:#000000;fill-opacity:1;fill-rule:evenodd;stroke:#000000;stroke-width:0;stroke-linecap:round;stroke-linejoin:round;stroke-opacity:1" />
        <path
           id="path174"
           d="m 9540.67,4885.81 v -470 h 210 v 470 z"
           style="fill:#000000;fill-opacity:1;fill-rule:evenodd;stroke:#000000;stroke-width:0;stroke-linecap:round;stroke-linejoin:round;stroke-opacity:1" />
        <path
           id="path176"
           d="m 9914.67,4885.81 v -470 h 210.03 v 470 z"
           style="fill:#000000;fill-opacity:1;fill-rule:evenodd;stroke:#000000;stroke-width:0;stroke-linecap:round;stroke-linejoin:round;stroke-opacity:1" />
        <path
           id="path178"
           d="m 9914.67,3857.81 v -470 h 210.03 v 470 z"
           style="fill:#000000;fill-opacity:1;fill-rule:evenodd;stroke:#000000;stroke-width:0;stroke-linecap:round;stroke-linejoin:round;stroke-opacity:1" />
        <path
           id="path180"
           d="m 9166.67,3857.81 v -470 h 210 v 470 z"
           style="fill:#000000;fill-opacity:1;fill-rule:evenodd;stroke:#000000;stroke-width:0;stroke-linecap:round;stroke-linejoin:round;stroke-opacity:1" />
      </g>
      <g
         id="g184" />
      <g
         id="g190"
         style="fill:#000000;fill-opacity:1;stroke:#000000;stroke-width:0;stroke-linecap:round;stroke-linejoin:round;stroke-opacity:1">
        <path
           id="path186"
           d="m 9626.97,3068.31 h -750 v -500 h 750 z"
           style="fill:#000000;fill-opacity:1;fill-rule:evenodd;stroke:#000000;stroke-width:0;stroke-linecap:round;stroke-linejoin:round;stroke-opacity:1" />
        <path
           id="path188"
           d="m 9626.97,1768.31 h -750 v -500 h 750 z"
           style="fill:#000000;fill-opacity:1;fill-rule:evenodd;stroke:#000000;stroke-width:0;stroke-linecap:round;stroke-linejoin:round;stroke-opacity:1" />
      </g>
      <g
         id="g192" />
      <g
         id="g194" />
      <g
         id="g196"
         style="fill:#000000;fill-opacity:1;stroke:#000000;stroke-width:0;stroke-linecap:round;stroke-linejoin:round;stroke-opacity:1" />
      <g
         id="g198"
         style="fill:#000000;fill-opacity:1;stroke:#000000;stroke-width:137.79499817;stroke-linecap:round;stroke-linejoin:round;stroke-opacity:1" />
      <g
         id="g304"
         style="fill:#000000;fill-opacity:0;stroke:#000000;stroke-width:137.79499817;stroke-linecap:round;stroke-linejoin:round;stroke-opacity:1">
        <path
           id="path200"
           d="m 8312,4650 -92,93" />
        <path
           id="path202"
           d="M 9271,4650 H 8312" />
        <path
           id="path204"
           d="m 11811,4786 h -985" />
        <path
           id="path206"
           d="M 9271,5023 V 4650" />
        <path
           id="path208"
           d="m 9271,5059 v -36" />
        <path
           id="path210"
           d="M 9386,5174 9271,5059" />
        <path
           id="path212"
           d="m 10701,4786 -388,388" />
        <path
           id="path214"
           d="M 10313,5174 H 9386" />
        <path
           id="path216"
           d="m 10826,4786 h -125" />
        <path
           id="path218"
           d="m 10354,2631 v 9" />
        <path
           id="path220"
           d="m 10634,2351 -280,280" />
        <path
           id="path222"
           d="m 10019,2975 v 647" />
        <path
           id="path224"
           d="m 10354,2640 -335,335" />
        <path
           id="path226"
           d="m 10826,3486 h 985" />
        <path
           id="path228"
           d="m 10690,3622 136,-136" />
        <path
           id="path230"
           d="m 10019,3622 h 671" />
        <path
           id="path232"
           d="M 4390,4924 V 2857" />
        <path
           id="path234"
           d="M 3090,2857 V 1873" />
        <path
           id="path236"
           d="M 5270,1873 H 4777" />
        <path
           id="path238"
           d="M 5708,2311 5270,1873" />
        <path
           id="path240"
           d="M 4777,1873 H 4390" />
        <path
           id="path242"
           d="M 5708,2699 V 2311" />
        <path
           id="path244"
           d="m 13337,4625 489,-489" />
        <path
           id="path246"
           d="M 13337,5364 V 4625" />
        <path
           id="path248"
           d="M 11072,6499 V 6105" />
        <path
           id="path250"
           d="m 13826,4136 394,-393" />
        <path
           id="path252"
           d="m 12992,5709 345,-345" />
        <path
           id="path254"
           d="m 12992,5711 v -2" />
        <path
           id="path256"
           d="m 11122,6056 h 1525" />
        <path
           id="path258"
           d="m 12647,6056 345,-345" />
        <path
           id="path260"
           d="m 11023,6499 h 49" />
        <path
           id="path262"
           d="m 11072,6105 50,-49" />
        <path
           id="path264"
           d="m 13826,3136 394,-393" />
        <path
           id="path266"
           d="m 10629,5905 195,-194" />
        <path
           id="path268"
           d="M 10629,6499 V 5905" />
        <path
           id="path270"
           d="m 10824,5711 h 1720" />
        <path
           id="path272"
           d="M 13022,5233 V 3940" />
        <path
           id="path274"
           d="m 12544,5711 478,-478" />
        <path
           id="path276"
           d="m 13022,3940 804,-804" />
        <path
           id="path278"
           d="m 3149,4983 -59,-59" />
        <path
           id="path280"
           d="M 3149,6499 V 4983" />
        <path
           id="path282"
           d="M 5708,4673 V 4387" />
        <path
           id="path284"
           d="M 5708,4387 V 3999" />
        <path
           id="path286"
           d="m 4837,5545 871,-872" />
        <path
           id="path288"
           d="m 3955,5545 h 882" />
        <path
           id="path290"
           d="m 3543,5957 412,-412" />
        <path
           id="path292"
           d="M 3543,6499 V 5957" />
        <path
           id="path294"
           d="m 9645,4650 h 374" />
        <path
           id="path296"
           d="m 9151,3743 120,-121" />
        <path
           id="path298"
           d="m 8220,3743 h 931" />
        <path
           id="path300"
           d="m 9251,3603 20,19" />
        <path
           id="path302"
           d="m 9251,2818 v 785" />
      </g>
      <g
         id="g306" />
      <g
         id="g308"
         style="fill:#000000;fill-opacity:0;stroke:#000000;stroke-width:137.79499817;stroke-linecap:round;stroke-linejoin:round;stroke-opacity:1" />
      <g
         id="g314"
         style="fill:#000000;fill-opacity:1;stroke:#000000;stroke-width:177.16499329;stroke-linecap:round;stroke-linejoin:round;stroke-opacity:1">
        <path
           id="path310"
           d="m 2573.12,1498.03 1.29,298.72 66.44,66.44 h 439.46 v -7.88 H 3100 v 7.88 h 439.47 l 66.44,-66.44 1.28,-298.72 -3.78,-38.38 h 273.49 l -3.78,38.38 v 750 l 5.13,52.1 15.2,50.09 7.98,14.94 -7.98,14.93 -15.2,50.1 -5.13,52.09 v 750 l 5.13,52.1 15.2,50.09 24.68,46.17 33.21,40.46 40.46,33.21 46.17,24.68 17.54,5.32 v 812.87 l -17.54,5.33 -46.17,24.67 -40.46,33.21 -33.21,40.47 -24.68,46.16 -15.2,50.1 -5.13,52.09 v 671.41 l -46.1,13.99 -58.13,31.07 v 0 0 l -38.19,31.34 v 0.01 l -12.77,10.47 -10.47,12.77 -223.21,223.2 v -19.95 l 4.26,-2.28 40.47,-33.21 33.21,-40.46 24.67,-46.17 15.2,-50.09 5.13,-52.1 v -750 l -5.13,-52.09 -15.2,-50.1 -24.67,-46.16 -33.21,-40.47 -40.47,-33.21 -46.16,-24.67 -50.1,-15.2 -52.09,-5.13 h -500 l -52.1,5.13 -50.09,15.2 -46.17,24.67 -40.46,33.21 -33.21,40.47 -24.68,46.16 -15.2,50.1 -5.13,52.09 v 750 l 5.13,52.1 15.2,50.09 24.68,46.17 33.21,40.46 40.46,33.21 46.17,24.68 50.09,15.2 26.9,2.64 v 489.88 l -49.21,49.21 v 583.17 h 7.87 v 19.69 h -7.87 v 583.17 l 66.44,66.43 22.14,1.29 52.1,-5.13 46.33,-14.05 46.33,14.05 52.09,5.13 h 196.85 l 52.1,-5.13 46.33,-14.05 46.33,14.05 52.09,5.13 h 196.85 l 52.1,-5.13 46.33,-14.05 46.33,14.05 52.09,5.13 h 196.85 l 52.1,-5.13 46.33,-14.05 46.33,14.05 52.09,5.13 h 196.85 l 52.1,-5.13 46.33,-14.05 46.33,14.05 52.09,5.13 h 196.85 l 52.1,-5.13 50.09,-15.2 46.17,-24.67 40.47,-33.21 33.21,-40.47 24.67,-46.16 15.2,-50.1 5.13,-52.09 v -787.4 l -5.13,-52.1 -15.2,-50.09 -24.67,-46.17 -33.21,-40.47 -40.47,-33.21 -46.17,-24.67 -50.09,-15.2 -52.1,-5.13 h -196.85 l -52.09,5.13 -46.33,14.06 -46.33,-14.06 -52.1,-5.13 h -196.85 l -52.09,5.13 -46.33,14.06 -46.33,-14.06 -52.1,-5.13 h -96.32 l 155.21,-155.21 h 726.25 l 16.44,1.62 16.43,-1.62 v 0 l 49.17,-4.84 63.08,-19.14 58.14,-31.07 50.95,-41.82 10.48,-12.77 848.41,-848.41 12.77,-10.47 10.47,-12.77 v 0 l 31.34,-38.19 h 0.01 l 31.07,-58.13 19.13,-63.09 4.85,-49.16 v 0 l 1.62,-16.44 -1.62,-16.43 v -140.75 h 40.35 l 52.1,-5.13 50.09,-15.19 46.17,-24.68 40.46,-33.21 33.21,-40.46 24.68,-46.17 15.19,-50.09 5.14,-52.1 v -500 l -5.14,-52.1 -15.19,-50.09 -24.68,-46.17 -33.21,-40.46 -40.46,-33.21 -46.17,-24.68 -50.09,-15.19 -52.1,-5.13 h -750 l -52.09,5.13 -50.1,15.19 -46.16,24.68 -40.47,33.21 -33.21,40.46 -24.68,46.17 -15.19,50.09 -5.13,52.1 v 500 l 5.13,52.1 15.19,50.09 24.68,46.17 33.21,40.46 40.47,33.21 46.16,24.68 50.1,15.19 52.09,5.13 h 40.36 v 18.57 l -466.83,466.82 v -452.62 l -5.13,-52.09 -15.2,-50.1 -24.67,-46.16 -33.21,-40.47 -40.47,-33.21 -46.16,-24.67 -17.55,-5.33 v -812.87 l 17.55,-5.32 46.16,-24.68 40.47,-33.21 33.21,-40.46 24.67,-46.17 15.2,-50.09 5.13,-52.1 v -750 l -5.13,-52.09 -15.2,-50.1 -7.98,-14.93 7.98,-14.94 15.2,-50.09 5.13,-52.1 v -40.35 h 224.27 l 35.09,35.09 -21.71,17.82 -33.21,40.46 -24.68,46.17 -15.19,50.09 -5.13,52.1 v 500 l 5.13,52.1 15.19,50.09 24.68,46.17 33.21,40.46 40.47,33.21 46.16,24.68 50.1,15.19 52.09,5.13 h 750 l 52.1,-5.13 50.09,-15.19 46.17,-24.68 40.46,-33.21 33.21,-40.46 24.68,-46.17 15.19,-50.09 5.14,-52.1 v -500 l -5.14,-52.1 -15.19,-50.09 -24.68,-46.17 -33.21,-40.46 -40.46,-33.21 -46.17,-24.68 -50.09,-15.19 -52.1,-5.13 h -64.63 l -30.77,-57.58 -41.82,-50.96 -12.77,-10.48 -415.34,-415.33 -10.48,-12.77 -50.95,-41.82 -58.14,-31.08 -63.08,-19.13 -49.16,-4.84 h -0.01 l -16.43,-1.62 -16.43,1.62 h -346.46 v -40.36 l -3.78,-38.38 H 7007.87 V 8388.78 H 5777.73 l -0.17,-41.83 -66.44,-66.44 H 5324.8 v 7.88 h -19.68 v -7.88 H 4918.8 l -66.44,66.44 -0.17,41.83 H 2628.12 l -0.17,-41.83 -66.43,-66.44 H 2175.2 v 7.88 h -19.69 v -7.88 h -386.32 l -66.43,66.44 -0.17,41.83 H 472.441 V 7876.97 H 1701.47 l 1.29,317.42 66.43,66.44 h 386.32 v -583.17 h 19.69 v 583.17 h 386.32 l 66.43,-66.44 1.29,-317.42 h 2221.84 l 1.28,317.42 66.44,66.44 h 386.32 v -583.17 h 19.68 v 583.17 h 386.32 l 66.44,-66.44 1.28,-317.42 -5.13,-52.1 -15.19,-50.09 -24.68,-46.17 -33.21,-40.46 -40.46,-33.21 -46.17,-24.68 -50.09,-15.19 -52.1,-5.14 -120.57,1.29 -66.44,66.44 h -19.68 l -66.44,-66.44 -120.57,-1.29 -52.1,5.14 -50.09,15.19 -46.17,24.68 -40.46,33.21 -33.21,40.46 -24.68,46.17 -15.19,50.09 -5.13,52.1 H 2629.24 l -5.13,-52.1 -15.2,-50.09 -24.67,-46.17 -33.21,-40.46 -40.47,-33.21 -46.17,-24.68 -50.09,-15.19 -52.1,-5.14 -120.57,1.29 -66.43,66.44 h -19.69 l -66.44,-66.44 -120.57,-1.29 -52.09,5.14 -50.1,15.19 -46.16,24.68 -40.47,33.21 -33.21,40.46 -24.67,46.17 -15.2,50.09 -5.13,52.1 H 472.441 v -787.4 H 2390.45 l 5.13,52.09 15.19,50.1 24.68,46.16 33.21,40.47 40.46,33.21 46.17,24.67 50.09,15.2 52.1,5.13 22.15,-1.29 66.43,-66.43 v -583.17 h -287.89 l -66.44,66.44 -1.28,317.42 H 472.441 v -787.4 H 2390.45 l 1.28,317.42 66.44,66.43 h 287.89 v -583.17 l -66.43,-66.43 -22.15,-1.29 -52.1,5.13 -50.09,15.2 -46.17,24.67 -40.46,33.21 -33.21,40.47 -24.68,46.17 -15.19,50.09 -5.13,52.1 H 472.441 V 3232.28 H 2573.12 l 5.13,52.1 15.2,50.09 24.68,46.17 33.21,40.46 40.46,33.21 46.17,24.68 50.09,15.2 52.1,5.13 173.72,-1.29 66.43,-66.44 V 2867.13 H 3100 v 564.46 l 66.44,66.44 173.72,1.29 52.09,-5.13 50.1,-15.2 46.16,-24.68 40.47,-33.21 33.21,-40.46 24.67,-46.17 15.2,-50.09 5.13,-52.1 -1.28,-298.72 -66.44,-66.43 H 3100 3080.31 2640.85 l -66.44,66.43 -1.29,298.72 H 472.441 V 2248.03 H 2573.12 l 5.13,52.1 15.2,50.09 7.98,14.94 -7.98,14.93 -15.2,50.1 -5.13,52.09 1.29,298.72 66.44,66.44 h 439.46 V 1882.87 H 3100 v 964.57 h 439.47 l 66.44,-66.44 1.28,-298.72 -5.13,-52.09 -15.2,-50.1 -7.98,-14.93 7.98,-14.94 15.2,-50.09 5.13,-52.1 -1.28,-298.72 -66.44,-66.44 H 3100 3080.31 2640.85 l -66.44,66.44 -1.29,298.72 H 472.441 V 1459.65 H 2576.9 Z"
           style="fill:#000000;fill-opacity:1;fill-rule:evenodd;stroke:#000000;stroke-width:177.16499329;stroke-linecap:round;stroke-linejoin:round;stroke-opacity:1" />
        <path
           id="path312"
           d="m 13614.6,1474.66 -40.7,123.35 -15.9,128.92 9.6,129.55 34.7,125.19 58.4,116.02 18,26.9 113.3,33.08 414.6,-414.56 -5.6,-5.57 13.9,-13.92 5.6,5.57 5.5,-5.57 14,13.92 -5.6,5.57 5.6,5.57 -14,13.92 -5.5,-5.57 -414.6,414.56 13.5,46.37 -19.3,12.92 -91.9,91.86 -72.1,108 -49.7,120.02 -25.4,127.4 v 129.9 l 20.1,101.12 -783.5,783.51 -12.7,10.48 -41.9,50.96 -16.6,31.07 -14.4,27.06 -19.2,63.08 -6.4,65.6 1.6,16.44 v 1137.67 l -281.9,281.92 h -1565.4 l -16.4,-1.62 -16.5,1.62 v 0 l -49.1,4.84 -63.1,19.14 -58.2,31.07 -50.9,41.82 -10.5,12.77 -171.1,171.09 -12.8,10.47 -41.8,50.96 -7.2,13.54 -23.8,44.6 -19.2,63.08 -6.4,65.6 1.6,16.44 v 131.25 l -49.2,49.21 v 583.17 h 7.8 v 19.69 h -7.8 v 583.17 l 66.4,66.43 22.1,1.29 52.1,-5.13 46.4,-14.05 46.3,14.05 52.1,5.13 h 196.8 l 52.1,-5.13 46.4,-14.05 46.3,14.05 52.1,5.13 h 196.8 l 52.1,-5.13 46.4,-14.05 46.3,14.05 52.1,5.13 h 196.8 l 52.1,-5.13 46.4,-14.05 46.3,14.05 52.1,5.13 h 196.8 l 52.1,-5.13 46.4,-14.05 46.3,14.05 52.1,5.13 h 196.8 l 52.1,-5.13 50.1,-15.2 46.2,-24.67 40.5,-33.21 33.2,-40.47 24.7,-46.16 15.2,-50.1 5.1,-52.09 v -698.82 h 61 l 16.4,1.62 16.5,-1.62 v 0 l 49.1,-4.84 63.1,-19.14 58.2,-31.07 50.9,-41.82 10.5,-12.77 321.2,-321.25 12.8,-10.47 10.5,-12.77 v 0 l 9.2,-11.22 313,-313.03 12.8,-10.47 1.1,-1.31 -15.5,77.57 v 129.9 l 25.4,127.4 49.7,120.02 72.1,108 91.9,91.86 108,72.17 120,49.71 127.4,25.34 h 129.9 l 127.4,-25.34 75.4,-31.22 V 8388.78 H 13258 l -0.1,-41.83 -66.5,-66.44 h -386.3 v 7.88 h -19.7 v -7.88 h -386.3 l -66.4,66.44 -0.2,41.83 h -2224.1 l -0.1,-41.83 -66.5,-66.44 h -386.29 v 7.88 h -19.68 v -7.88 h -386.32 l -66.44,66.44 -0.17,41.83 H 7952.76 v -511.81 h 1229.03 l 1.28,317.42 66.44,66.44 h 386.32 v -583.17 h 19.68 v 583.17 h 386.29 l 66.5,-66.44 1.3,-317.42 h 2221.8 l 1.3,317.42 66.4,66.44 h 386.3 v -583.17 h 19.7 v 583.17 h 386.3 l 66.5,-66.44 1.3,-317.42 -5.2,-52.1 -15.2,-50.09 -24.6,-46.17 -33.3,-40.46 -40.4,-33.21 -46.2,-24.68 -50.1,-15.19 -52.1,-5.14 -120.5,1.29 -66.5,66.44 h -19.7 l -66.4,-66.44 -120.6,-1.29 -52.1,5.14 -50.1,15.19 -46.1,24.68 -40.5,33.21 -33.2,40.46 -24.7,46.17 -15.2,50.09 -5.1,52.1 h -2221.8 l -5.2,-52.1 -15.2,-50.09 -24.6,-46.17 -33.3,-40.46 -40.42,-33.21 -46.17,-24.68 -50.09,-15.19 -52.1,-5.14 -120.57,1.29 -66.44,66.44 h -19.68 l -66.44,-66.44 -120.57,-1.29 -52.1,5.14 -50.09,15.19 -46.17,24.68 -40.46,33.21 -33.21,40.46 -24.68,46.17 -15.19,50.09 -5.13,52.1 H 7952.76 v -787.4 h 1918 l 5.13,52.09 15.2,50.1 24.67,46.16 33.21,40.47 40.47,33.21 46.16,24.67 50.1,15.2 52.1,5.13 22.1,-1.29 66.5,-66.43 v -583.17 h -287.92 l -66.43,66.44 -1.29,317.42 h -1918 V 6346 l 75.36,31.22 127.4,25.34 h 129.9 l 127.41,-25.34 120.01,-49.71 37.92,-25.34 h 1300 l 1.29,317.42 66.43,66.43 h 287.92 v -583.17 l -66.5,-66.43 -22.1,-1.29 -52.1,5.13 -50.1,15.2 -46.16,24.67 -40.47,33.21 -33.21,40.47 -24.67,46.17 -15.2,50.09 -5.13,52.1 h -1300 l 70.09,-46.83 91.85,-91.86 72.17,-108 49.71,-120.02 25.34,-127.4 v -129.9 l -25.34,-127.4 -49.71,-120.02 -72.17,-108 -79.63,-79.63 79.63,-79.63 72.17,-108 29,-70.02 h 85.32 l 0.77,2.54 17.06,31.92 v 23.37 l -1.61,16.44 1.61,16.43 v 0 l 3.44,34.87 1.41,14.3 8.17,26.96 10.96,36.12 31.08,58.13 41.81,50.96 12.77,10.48 91.64,91.63 10.48,12.77 50.95,41.82 58.14,31.07 63.08,19.14 49.16,4.84 h 0.01 l 16.43,1.62 16.43,-1.62 h 894.52 l 16.5,1.62 16.4,-1.62 v 0 l 49.2,-4.84 63.1,-19.14 58.1,-31.07 51,-41.82 10.4,-12.77 95.8,-95.77 h 543.8 l 52.1,-5.13 50.1,-15.19 14.9,-7.99 14.9,7.99 50.1,15.19 52.1,5.13 h 750 l 52.1,-5.13 50.1,-15.19 46.2,-24.68 40.4,-33.21 33.3,-40.46 24.6,-46.17 15.2,-50.09 5.2,-52.1 v -500 l -5.2,-52.09 -15.2,-50.1 -24.6,-46.16 -33.3,-40.47 -40.4,-33.21 -46.2,-24.68 -50.1,-15.19 -52.1,-5.13 h -750 l -52.1,5.13 -50.1,15.19 -14.9,7.99 -14.9,-7.99 -50.1,-15.19 -52.1,-5.13 h -750 l -52.1,5.13 -42.2,12.79 -10.8,-20.24 -33.2,-40.47 -40.5,-33.21 -46.1,-24.68 -50.1,-15.19 -52.1,-5.13 -28.8,1.28 -66.4,66.44 v 424.47 h 7.9 v 19.68 h -7.9 v 7.88 h -19.7 v -7.88 h -354.29 v 7.88 h -11.81 v -252.72 h 3.94 l 1.28,158.72 6.59,6.59 v 59.85 h 354.29 v -59.85 l 6.6,-6.59 1.3,-158.72 -5.1,-52.09 -2.8,-9.05 V 4216.5 l -66.41,-66.44 -28.72,-1.28 -52.1,5.13 -29.9,9.07 -29.91,-9.07 -52.09,-5.13 -28.72,1.28 -66.44,66.44 v 138.17 l -2.74,9.05 -5.13,52.09 h -3.94 l -5.13,-52.09 -2.74,-9.05 V 4216.5 l -66.44,-66.44 -28.72,-1.28 -52.1,5.13 -29.9,9.07 -29.91,-9.07 -52.09,-5.13 h -210 l -52.1,5.13 -50.09,15.19 -46.17,24.68 -40.46,33.21 -33.21,40.47 -24.68,46.16 -0.77,2.55 h -193.06 l -73.06,-73.06 79.63,-79.63 57.28,-85.72 h 225.79 l 2.54,2.08 46.17,24.68 50.09,15.19 52.1,5.13 h 210 l 52.09,-5.13 50.1,-15.19 46.17,-24.68 40.46,-33.21 33.21,-40.46 24.68,-46.17 15.19,-50.09 5.13,-52.1 v -470 l -5.13,-52.09 -0.44,-1.48 15.55,-1.53 -0.91,3.01 -5.13,52.09 v 470 l 5.13,52.1 15.19,50.09 24.68,46.17 33.21,40.46 40.46,33.21 46.17,24.68 50.09,15.19 52.1,5.13 h 210.03 l 52.1,-5.13 50.1,-15.19 46.1,-24.68 40.5,-33.21 33.2,-40.46 10.8,-20.24 42.2,12.78 52.1,5.13 h 750 l 52.1,-5.13 50.1,-15.19 14.9,-7.99 14.9,7.99 50.1,15.19 52.1,5.13 h 750 l 52.1,-5.13 50.1,-15.19 46.2,-24.68 40.4,-33.21 33.3,-40.46 24.6,-46.17 15.2,-50.09 5.2,-52.1 v -500 l -5.2,-52.09 -15.2,-50.1 -24.6,-46.16 -33.3,-40.47 -40.4,-33.21 -17.3,-9.23 16.2,-30.33 15.2,-50.09 5.1,-52.1 -1.2,-445.37 -66.5,-66.44 h -470 v 7.87 h -19.6 v -7.87 h -470 l -66.5,66.44 -1.2,445.37 5.1,52.1 15.2,50.09 4.6,8.68 -29.6,-8.99 -52.1,-5.13 h -76.8 l 29.6,-55.32 20.8,-68.56 7,-71.29 v -846.46 l -7,-71.3 -8.3,-27.13 h 91.5 l 1.2,445.38 66.5,66.44 h 470 v -711.13 h 19.6 v 711.13 h 470 l 66.5,-66.44 1.2,-445.38 -5.1,-52.09 -15.2,-50.09 -24.7,-46.17 -33.2,-40.47 -40.4,-33.21 -46.2,-24.67 -50.1,-15.2 -52.1,-5.13 -204.2,1.29 -66.5,66.43 h -19.6 l -66.5,-66.43 -204.2,-1.29 -52.1,5.13 -50.1,15.2 -46.2,24.67 -40.4,33.21 -33.2,40.47 -24.7,46.17 -15.2,50.09 -5.1,52.09 h -91.5 l -12.5,-41.43 -33.8,-63.18 -45.5,-55.38 -55.3,-45.45 -63.2,-33.77 -68.6,-20.8 -71.3,-7.02 h -364.1 l -71.3,7.02 -68.6,20.8 -63.2,33.77 -55.4,45.45 -45.4,55.38 -33.8,63.18 -20.8,68.56 -7,71.3 v 501.62 l -12.6,15.3 -2.3,4.32 -178.4,178.43 v -59.51 l -5.13,-52.1 -15.19,-50.09 -24.68,-46.17 -33.21,-40.46 -40.47,-33.21 -46.16,-24.68 -50.1,-15.2 -52.09,-5.13 h -750 l -52.1,5.13 -50.09,15.2 -46.17,24.68 -4.96,4.07 -74.7,-21.8 -414.56,414.56 5.57,5.57 -13.92,13.92 -5.57,-5.57 -5.57,5.57 -13.91,-13.92 5.56,-5.57 -5.56,-5.57 13.91,-13.92 5.57,5.57 414.56,-414.56 -13.53,-46.37 19.35,-12.92 91.85,-91.86 72.17,-108 11.53,-27.84 8.47,2.57 52.1,5.13 298.72,-1.28 66.44,-66.44 v -439.47 h 19.68 v 439.47 l 66.44,66.44 298.72,1.28 52.09,-5.13 50.1,-15.2 46.16,-24.67 40.47,-33.21 33.21,-40.47 24.68,-46.16 15.19,-50.1 5.13,-52.09 -1.28,-173.72 -66.44,-66.44 h -564.47 -19.68 -7.88 v -19.69 h 7.88 v -7.87 h 19.68 v 7.87 h 564.47 l 48.82,-48.81 h 3748 z"
           style="fill:#000000;fill-opacity:1;fill-rule:evenodd;stroke:#000000;stroke-width:177.16499329;stroke-linecap:round;stroke-linejoin:round;stroke-opacity:1" />
      </g>
    </g>
  </g>
  <g
     transform="translate(207.68348,-780.31652)"
     style="display:none"
     id="layer2">
    <path
       d="m 196,1184 h 7087 v 0 7480 0 H 196 v 0 z"
       style="fill:#000000;fill-opacity:0.98101262;stroke:none;stroke-width:19.68499947;stroke-linecap:round;stroke-linejoin:round;stroke-opacity:1"
       id="path390" />
    <path
       d="m 7677,1184 h 7086 v 7480 0 H 7677 v 0 z"
       id="path398"
       style="fill:#000000;fill-opacity:1;stroke:none;stroke-width:19.68499947;stroke-linecap:round;stroke-linejoin:round;stroke-opacity:1" />
    <g
       id="g400"
       style="fill:#000000;fill-opacity:0;stroke:#000000;stroke-width:19.68499947;stroke-linecap:round;stroke-linejoin:round;stroke-opacity:1" />
    <g
       id="g402"
       style="fill:#000000;fill-opacity:0;stroke:#000000;stroke-width:19.68499947;stroke-linecap:round;stroke-linejoin:round;stroke-opacity:1" />
    <g
       id="g404"
       style="fill:#000000;fill-opacity:0;stroke:#000000;stroke-width:19.68499947;stroke-linecap:round;stroke-linejoin:round;stroke-opacity:1" />
    <g
       id="g406"
       style="fill:#000000;fill-opacity:0;stroke:#000000;stroke-width:19.68499947;stroke-linecap:round;stroke-linejoin:round;stroke-opacity:1" />
    <g
       id="g408"
       style="fill:#000000;fill-opacity:0;stroke:#000000;stroke-width:19.68499947;stroke-linecap:round;stroke-linejoin:round;stroke-opacity:1" />
    <g
       id="g410"
       style="fill:#000000;fill-opacity:0;stroke:#000000;stroke-width:19.68499947;stroke-linecap:round;stroke-linejoin:round;stroke-opacity:1" />
    <g
       id="g412"
       style="fill:#000000;fill-opacity:0;stroke:#000000;stroke-width:19.68499947;stroke-linecap:round;stroke-linejoin:round;stroke-opacity:1" />
    <g
       id="g414"
       style="fill:#000000;fill-opacity:0;stroke:#000000;stroke-width:19.68499947;stroke-linecap:round;stroke-linejoin:round;stroke-opacity:1" />
    <g
       id="g416"
       style="fill:#000000;fill-opacity:0;stroke:#000000;stroke-width:19.68499947;stroke-linecap:round;stroke-linejoin:round;stroke-opacity:1" />
    <g
       id="g418"
       style="fill:#000000;fill-opacity:0;stroke:#000000;stroke-width:19.68499947;stroke-linecap:round;stroke-linejoin:round;stroke-opacity:1" />
    <g
       id="g420"
       style="fill:#000000;fill-opacity:0;stroke:#000000;stroke-width:19.68499947;stroke-linecap:round;stroke-linejoin:round;stroke-opacity:1" />
    <g
       id="g422"
       style="fill:#000000;fill-opacity:0;stroke:#000000;stroke-width:19.68499947;stroke-linecap:round;stroke-linejoin:round;stroke-opacity:1" />
    <g
       id="g424"
       style="fill:#000000;fill-opacity:0;stroke:#000000;stroke-width:19.68499947;stroke-linecap:round;stroke-linejoin:round;stroke-opacity:1" />
  </g>
  <g
     style="display:none"
     id="layer3">
    <g
       transform="translate(207.68348,-780.31651)"
       id="g322"
       style="fill:#060000;fill-opacity:1;stroke:#ffffff;stroke-width:0;stroke-linecap:round;stroke-linejoin:round;stroke-opacity:1">
      <circle
         style="fill:#060000;fill-opacity:1"
         id="circle320"
         r="150"
         cy="1743.11"
         cx="14220.5" />
    </g>
    <g
       transform="translate(207.68348,-780.31651)"
       id="g328"
       style="fill:#060000;fill-opacity:1;stroke:#ffffff;stroke-width:0;stroke-linecap:round;stroke-linejoin:round;stroke-opacity:1">
      <circle
         style="fill:#060000;fill-opacity:1"
         id="circle326"
         r="150"
         cy="2743.1101"
         cx="14220.5" />
    </g>
    <g
       transform="translate(207.68348,-780.31651)"
       id="g334"
       style="fill:#060000;fill-opacity:1;stroke:#ffffff;stroke-width:0;stroke-linecap:round;stroke-linejoin:round;stroke-opacity:1">
      <circle
         style="fill:#060000;fill-opacity:1"
         id="circle332"
         r="150"
         cy="3743.1101"
         cx="14220.5" />
    </g>
    <g
       transform="translate(207.68348,-780.31651)"
       id="g340"
       style="fill:#060000;fill-opacity:1;stroke:#ffffff;stroke-width:0;stroke-linecap:round;stroke-linejoin:round;stroke-opacity:1">
      <circle
         style="fill:#060000;fill-opacity:1"
         id="circle338"
         r="150"
         cy="4743.1099"
         cx="14220.5" />
    </g>
    <g
       transform="translate(207.68348,-780.31651)"
       id="g346"
       style="fill:#060000;fill-opacity:1;stroke:#ffffff;stroke-width:0;stroke-linecap:round;stroke-linejoin:round;stroke-opacity:1">
      <circle
         style="fill:#060000;fill-opacity:1"
         id="circle344"
         r="150"
         cy="5743.1099"
         cx="14220.5" />
    </g>
    <g
       transform="translate(207.68348,-780.31651)"
       id="g352"
       style="fill:#060000;fill-opacity:1;stroke:#ffffff;stroke-width:0;stroke-linecap:round;stroke-linejoin:round;stroke-opacity:1">
      <circle
         style="fill:#060000;fill-opacity:1"
         id="circle350"
         r="150"
         cy="5743.1099"
         cx="8220.4697" />
    </g>
    <g
       transform="translate(207.68348,-780.31651)"
       id="g358"
       style="fill:#060000;fill-opacity:1;stroke:#ffffff;stroke-width:0;stroke-linecap:round;stroke-linejoin:round;stroke-opacity:1">
      <circle
         style="fill:#060000;fill-opacity:1"
         id="circle356"
         r="150"
         cy="4743.1099"
         cx="8220.4697" />
    </g>
    <g
       transform="translate(207.68348,-780.31651)"
       id="g364"
       style="fill:#060000;fill-opacity:1;stroke:#ffffff;stroke-width:0;stroke-linecap:round;stroke-linejoin:round;stroke-opacity:1">
      <circle
         style="fill:#060000;fill-opacity:1"
         id="circle362"
         r="150"
         cy="3743.1101"
         cx="8220.4697" />
    </g>
    <g
       transform="translate(207.68348,-780.31651)"
       id="g370"
       style="fill:#060000;fill-opacity:1;stroke:#ffffff;stroke-width:0;stroke-linecap:round;stroke-linejoin:round;stroke-opacity:1">
      <circle
         style="fill:#060000;fill-opacity:1"
         id="circle368"
         r="150"
         cy="2743.1101"
         cx="8220.4697" />
    </g>
    <g
       transform="translate(207.68348,-780.31651)"
       id="g376"
       style="fill:#060000;fill-opacity:1;stroke:#ffffff;stroke-width:0;stroke-linecap:round;stroke-linejoin:round;stroke-opacity:1">
      <circle
         style="fill:#060000;fill-opacity:1"
         id="circle374"
         r="150"
         cy="1743.11"
         cx="8220.4697" />
    </g>
  </g>
</svg>
